<svg xmlns="http://www.w3.org/2000/svg" width="111" height="55" viewBox="0 0 111 55">
  <g id="Grupo_1" data-name="Grupo 1" transform="translate(-140 -47)">
    <g id="music" transform="translate(140 47)">
      <rect id="Retângulo_519" data-name="Retângulo 519" width="55" height="55" fill="#fff" opacity="0"/>
      <path id="Caminho_1280" data-name="Caminho 1280" d="M39.157,30.14V5.265A2.289,2.289,0,0,0,36.4,3.048L16.046,7.571a2.261,2.261,0,0,0-1.764,2.216v18.86A7.892,7.892,0,1,0,18.8,35.839a9.861,9.861,0,0,0,0-1.176V11.6l15.83-3.505V24.125a7.892,7.892,0,1,0,4.523,7.169,10.337,10.337,0,0,0,0-1.153Z" transform="translate(3.81 3.781)" fill="#fff"/>
    </g>
    <text id="music-2" data-name="music" transform="translate(196 82)" fill="#fff" font-size="20" font-family="IBMPlexSans-Bold, IBM Plex Sans" font-weight="700"><tspan x="0" y="0">Music</tspan></text>
  </g>
</svg>
